<block>
<variables>
<variable>
<name>
a
</name>
<type>
double
</type>
</variable>
<variable>
<name>
b
</name>
<type>
double
</type>
</variable>
</variables>
<functions>
<function>
<name>
add
</name>
<parameters>
<parameter>
<name>
x
</name>
<type>
double
</type>
</parameter>
<parameter>
<name>
y
</name>
<type>
double
</type>
</parameter>
<parameter>
<name>
z
</name>
<type>
integer
</type>
</parameter>
</parameters>
<type>
double
</type>
<block>
<statements>
<statement>
<return>
<arithmetic_binary_operator_addition>
<left_operand>
<identifier>
x
</identifier>
</left_operand>
<right_operand>
<arithmetic_binary_operator_addition>
<left_operand>
<identifier>
y
</identifier>
</left_operand>
<right_operand>
<identifier>
z
</identifier>
</right_operand>
</arithmetic_binary_operator_addition>
<operand_coerce>
double
</operand_coerce>
</right_operand>
</arithmetic_binary_operator_addition>
<operand_coerce>
double
</operand_coerce>
</return>
</statement>
</statements>
</block>
</function>
</functions>
<statements>
<statement>
<assignment>
<identifier>
a
</identifier>
<coerce>
<type>
double
</type>
<arithmetic_expression>
<integer_constant>
12
</integer_constant>
</arithmetic_expression>
</coerce>
</assignment>
</statement>
<statement>
<if>
<relation_binary_operator_equals>
<left_operand>
<identifier>
a
</identifier>
</left_operand>
<right_operand>
<integer_constant>
12
</integer_constant>
</right_operand>
</relation_binary_operator_equals>
<statements>
<statement>
<assignment>
<identifier>
a
</identifier>
<coerce>
<type>
double
</type>
<arithmetic_expression>
<integer_constant>
13
</integer_constant>
</arithmetic_expression>
</coerce>
</assignment>
</statement>
</statements>
</if>
<else>
<statements>
<statement>
<assignment>
<identifier>
b
</identifier>
<coerce>
<type>
double
</type>
<arithmetic_expression>
<integer_constant>
14
</integer_constant>
</arithmetic_expression>
</coerce>
</assignment>
</statement>
</statements>
</else>
</statement>
<statement>
<while>
<bool_binary_operator_and>
<left_operand>
<bool_unary_operator_negation>
<bool_binary_operator_or>
<left_operand>
<bool_constant>
true
</bool_constant>
</left_operand>
<right_operand>
<relation_binary_operator_less_than>
<left_operand>
<arithmetic_binary_operator_addition>
<left_operand>
<integer_constant>
12
</integer_constant>
</left_operand>
<right_operand>
<integer_constant>
13
</integer_constant>
</right_operand>
</arithmetic_binary_operator_addition>
<operand_coerce>
integer
</operand_coerce>
</left_operand>
<right_operand>
<integer_constant>
14
</integer_constant>
</right_operand>
</relation_binary_operator_less_than>
</right_operand>
</bool_binary_operator_or>
</bool_unary_operator_negation>
</left_operand>
<right_operand>
<relation_binary_operator_greater_than>
<left_operand>
<integer_constant>
14
</integer_constant>
</left_operand>
<right_operand>
<integer_constant>
13
</integer_constant>
</right_operand>
</relation_binary_operator_greater_than>
</right_operand>
</bool_binary_operator_and>
<statements>
<statement>
<return>
<call>
<identifier>
add
</identifier>
<arithmetic_expressions>
<arithmetic_expression>
<coerce>
<type>
double
</type>
<arithmetic_expression>
<integer_constant>
13
</integer_constant>
</arithmetic_expression>
</coerce>
</arithmetic_expression>
<arithmetic_expression>
<arithmetic_binary_operator_multiplication>
<left_operand>
<arithmetic_unary_operator_minus>
<real_constant>
14.0
</real_constant>
</arithmetic_unary_operator_minus>
</left_operand>
<right_operand>
<arithmetic_binary_operator_modulo>
<left_operand>
<arithmetic_binary_operator_addition>
<left_operand>
<integer_constant>
15
</integer_constant>
</left_operand>
<right_operand>
<integer_constant>
16
</integer_constant>
</right_operand>
</arithmetic_binary_operator_addition>
<operand_coerce>
integer
</operand_coerce>
</left_operand>
<right_operand>
<arithmetic_binary_operator_division>
<left_operand>
<real_constant>
0.17
</real_constant>
</left_operand>
<right_operand>
<integer_constant>
18
</integer_constant>
</right_operand>
</arithmetic_binary_operator_division>
</right_operand>
</arithmetic_binary_operator_modulo>
</right_operand>
</arithmetic_binary_operator_multiplication>
</arithmetic_expression>
<arithmetic_expression>
<integer_constant>
19
</integer_constant>
</arithmetic_expression>
</arithmetic_expressions>
</call>
</return>
</statement>
</statements>
</while>
</statement>
</statements>
</block>
